<?xml version="1.0" encoding="UTF-8" standalone="no"?>
<!-- Created with Inkscape (http://www.inkscape.org/) -->

<svg
   xmlns:dc="http://purl.org/dc/elements/1.1/"
   xmlns:cc="http://creativecommons.org/ns#"
   xmlns:rdf="http://www.w3.org/1999/02/22-rdf-syntax-ns#"
   xmlns:svg="http://www.w3.org/2000/svg"
   xmlns="http://www.w3.org/2000/svg"
   xmlns:xlink="http://www.w3.org/1999/xlink"
   xmlns:sodipodi="http://sodipodi.sourceforge.net/DTD/sodipodi-0.dtd"
   xmlns:inkscape="http://www.inkscape.org/namespaces/inkscape"
   width="1200"
   height="1200"
   viewBox="0 0 317.5 317.5"
   version="1.1"
   id="svg8"
   inkscape:version="0.92.3 (2405546, 2018-03-11)"
   sodipodi:docname="stuff.svg"
   enable-background="new"
   inkscape:export-filename="/home/vanntile/Documents/doc/Design/Projects/LSAC/Anul II/7.10.19_training/s.png"
   inkscape:export-xdpi="300"
   inkscape:export-ydpi="300">
  <sodipodi:namedview
     id="base"
     pagecolor="#fafafa"
     bordercolor="#666666"
     borderopacity="1.0"
     inkscape:pageopacity="0"
     inkscape:pageshadow="2"
     inkscape:zoom="0.7325"
     inkscape:cx="600"
     inkscape:cy="600"
     inkscape:document-units="px"
     inkscape:current-layer="layer9"
     showgrid="false"
     units="px"
     inkscape:showpageshadow="false"
     inkscape:snap-page="true"
     borderlayer="true"
     inkscape:window-width="1861"
     inkscape:window-height="1016"
     inkscape:window-x="59"
     inkscape:window-y="28"
     inkscape:window-maximized="1"
     inkscape:object-paths="true"
     inkscape:snap-intersection-paths="true"
     showguides="false"
     inkscape:guide-bbox="true"
     inkscape:measure-start="718.691,1051.49"
     inkscape:measure-end="677.58,1051.49"
     inkscape:snap-smooth-nodes="true"
     inkscape:snap-midpoints="true"
     inkscape:snap-object-midpoints="true"
     inkscape:snap-global="false">
    <sodipodi:guide
       position="179.2765,237.11189"
       orientation="1,0"
       id="guide3299"
       inkscape:locked="false" />
    <sodipodi:guide
       position="179.2765,93.689687"
       orientation="0,1"
       id="guide3301"
       inkscape:locked="false" />
    <sodipodi:guide
       position="62.831144,93.689687"
       orientation="1,0"
       id="guide3320"
       inkscape:locked="false" />
    <sodipodi:guide
       position="179.2765,235.97526"
       orientation="0,1"
       id="guide3374"
       inkscape:locked="false" />
  </sodipodi:namedview>
  <defs
     id="defs2">
    <linearGradient
       id="linearGradient4587"
       inkscape:collect="always">
      <stop
         style="stop-color:#e61e70;stop-opacity:1"
         offset="0"
         id="stop4585" />
      <stop
         style="stop-color:#e6711a;stop-opacity:1"
         offset="1"
         id="stop4583" />
    </linearGradient>
    <linearGradient
       id="linearGradient4175"
       inkscape:collect="always">
      <stop
         id="stop4171"
         offset="0"
         style="stop-color:#e6711a;stop-opacity:1" />
      <stop
         id="stop4173"
         offset="1"
         style="stop-color:#e6206e;stop-opacity:1" />
    </linearGradient>
    <linearGradient
       inkscape:collect="always"
       id="linearGradient3019">
      <stop
         style="stop-color:#e6711a;stop-opacity:1"
         offset="0"
         id="stop3015" />
      <stop
         style="stop-color:#e61e70;stop-opacity:1"
         offset="1"
         id="stop3017" />
    </linearGradient>
    <inkscape:perspective
       sodipodi:type="inkscape:persp3d"
       inkscape:vp_x="92.085871 : 89.1809 : 1"
       inkscape:vp_y="0 : 1000 : 0"
       inkscape:vp_z="370.82339 : 97.63817 : 1"
       inkscape:persp3d-origin="212.07339 : 44.7215 : 1"
       id="perspective2983" />
    <linearGradient
       inkscape:collect="always"
       xlink:href="#linearGradient3019"
       id="linearGradient3021"
       x1="-223.93126"
       y1="443.08307"
       x2="-152.58578"
       y2="371.73758"
       gradientUnits="userSpaceOnUse"
       gradientTransform="matrix(0.58780186,0,0,0.58780186,257.46168,-42.740098)" />
    <linearGradient
       inkscape:collect="always"
       xlink:href="#linearGradient3019"
       id="linearGradient3247"
       x1="292.61194"
       y1="296.50522"
       x2="1200"
       y2="1200"
       gradientUnits="userSpaceOnUse"
       gradientTransform="matrix(-0.26458333,0,0,0.26458333,317.5,-20.499981)" />
    <filter
       inkscape:collect="always"
       style="color-interpolation-filters:sRGB"
       id="filter3557">
      <feBlend
         inkscape:collect="always"
         mode="overlay"
         in2="BackgroundImage"
         id="feBlend3559" />
    </filter>
    <filter
       inkscape:collect="always"
       style="color-interpolation-filters:sRGB"
       id="filter4143">
      <feBlend
         inkscape:collect="always"
         mode="hard-light"
         in2="BackgroundImage"
         id="feBlend4145" />
    </filter>
    <linearGradient
       inkscape:collect="always"
       xlink:href="#linearGradient4175"
       id="linearGradient4169"
       x1="119.95363"
       y1="169.47809"
       x2="119.95363"
       y2="205.73145"
       gradientUnits="userSpaceOnUse"
       gradientTransform="translate(0.12356357,2.7579676)" />
    <filter
       inkscape:collect="always"
       style="color-interpolation-filters:sRGB"
       id="filter4189">
      <feBlend
         inkscape:collect="always"
         mode="hard-light"
         in2="BackgroundImage"
         id="feBlend4191" />
    </filter>
    <filter
       inkscape:collect="always"
       style="color-interpolation-filters:sRGB"
       id="filter4543">
      <feBlend
         inkscape:collect="always"
         mode="overlay"
         in2="BackgroundImage"
         id="feBlend4545" />
    </filter>
    <linearGradient
       inkscape:collect="always"
       xlink:href="#linearGradient4587"
       id="linearGradient4581"
       x1="125.33844"
       y1="47.31797"
       x2="163.08446"
       y2="47.31797"
       gradientUnits="userSpaceOnUse" />
    <linearGradient
       inkscape:collect="always"
       xlink:href="#linearGradient4587"
       id="linearGradient4591"
       gradientUnits="userSpaceOnUse"
       x1="125.33844"
       y1="47.31797"
       x2="163.08446"
       y2="47.31797" />
    <linearGradient
       inkscape:collect="always"
       xlink:href="#linearGradient4587"
       id="linearGradient4593"
       gradientUnits="userSpaceOnUse"
       x1="125.33844"
       y1="47.31797"
       x2="163.08446"
       y2="47.31797" />
    <filter
       inkscape:collect="always"
       style="color-interpolation-filters:sRGB"
       id="filter4815">
      <feBlend
         inkscape:collect="always"
         mode="screen"
         in2="BackgroundImage"
         id="feBlend4817" />
    </filter>
    <linearGradient
       inkscape:collect="always"
       xlink:href="#linearGradient4587"
       id="linearGradient4825"
       gradientUnits="userSpaceOnUse"
       x1="125.33844"
       y1="47.31797"
       x2="163.08446"
       y2="47.31797" />
    <linearGradient
       inkscape:collect="always"
       xlink:href="#linearGradient4587"
       id="linearGradient4827"
       gradientUnits="userSpaceOnUse"
       x1="125.33844"
       y1="47.31797"
       x2="163.08446"
       y2="47.31797" />
    <linearGradient
       inkscape:collect="always"
       xlink:href="#linearGradient4587"
       id="linearGradient4829"
       gradientUnits="userSpaceOnUse"
       x1="125.33844"
       y1="47.31797"
       x2="163.08446"
       y2="47.31797" />
  </defs>
  <metadata
     id="metadata5">
    <rdf:RDF>
      <cc:Work
         rdf:about="">
        <dc:format>image/svg+xml</dc:format>
        <dc:type
           rdf:resource="http://purl.org/dc/dcmitype/StillImage" />
        <dc:title />
      </cc:Work>
    </rdf:RDF>
  </metadata>
  <g
     style="display:none"
     inkscape:label="Vann"
     id="layer5"
     inkscape:groupmode="layer">
    <path
       id="path3051-7"
       d="m 22.224658,265.24963 c -5.260438,0 -9.524658,4.26499 -9.524658,9.52554 0,5.26055 4.264219,9.52485 9.524658,9.52485 5.260438,0 9.525342,-4.2643 9.525342,-9.52485 0,-5.26055 -4.264904,-9.52554 -9.525342,-9.52554 z m 5.96779,3.89286 a 0.43299172,0.43300083 0 0 1 0.330441,0.69715 l -9.030704,11.90641 a 0.43299172,0.43300083 0 0 1 -0.747769,-0.10123 l -3.524713,-8.82496 a 0.43353452,0.43354365 0 1 1 0.805238,-0.32156 l 3.24011,8.11482 8.567537,-11.2941 a 0.43299172,0.43300083 0 0 1 0.321548,-0.17582 0.43299172,0.43300083 0 0 1 0.03832,-7.1e-4 z m -2.899402,9.89087 c 0.398672,0 0.720404,0.32174 0.720404,0.72042 0,0.39869 -0.321732,0.72043 -0.720404,0.72043 -0.398674,0 -0.724511,-0.32174 -0.724511,-0.72043 0,-0.39868 0.325836,-0.72042 0.724511,-0.72042 z m 0,1.80277 c 0.481654,0 1.440808,0.24057 1.440808,0.72042 v 0.36193 h -2.885721 v -0.36193 c 0,-0.47985 0.963256,-0.72042 1.444913,-0.72042 z"
       style="display:inline;fill:#3f51b5;fill-opacity:1;fill-rule:nonzero;stroke:none;stroke-width:0.35028559"
       inkscape:connector-curvature="0"
       transform="translate(0,20.499981)" />
  </g>
  <g
     style="display:none"
     inkscape:label="Color Palette"
     id="layer3"
     inkscape:groupmode="layer">
    <path
       inkscape:connector-curvature="0"
       id="rect4551"
       d="m -34.347988,292.5 h 24.9999999 v 25 H -34.347988 Z"
       style="fill:#000000;fill-opacity:1;stroke:none;stroke-width:0.26458332" />
    <path
       inkscape:connector-curvature="0"
       id="rect4553"
       d="m -34.347988,259.16666 h 24.9999999 v 25 H -34.347988 Z"
       style="fill:#000000;fill-opacity:1;stroke:none;stroke-width:0.26458332" />
    <path
       inkscape:connector-curvature="0"
       id="rect4557"
       d="m -34.347988,225.83333 h 24.9999999 v 25 H -34.347988 Z"
       style="fill:#7366ff;fill-opacity:1;stroke:none;stroke-width:0.26458332" />
    <path
       inkscape:connector-curvature="0"
       id="rect4559"
       d="m -34.347988,192.5 h 24.9999999 v 25 H -34.347988 Z"
       style="fill:#ff6cab;fill-opacity:1;stroke:none;stroke-width:0.26458332" />
  </g>
  <g
     transform="translate(0,20.499981)"
     id="layer1"
     inkscape:groupmode="layer"
     inkscape:label="Background"
     style="display:inline"
     sodipodi:insensitive="true">
    <path
       style="fill:url(#linearGradient3247);fill-opacity:1;stroke:none;stroke-width:0.26458332;stroke-opacity:1"
       d="m 317.5,-20.499981 v 125.137061 72.43227 11.82874 48.79857 59.30335 H 0 V 237.69666 195.27858 183.44881 104.63708 -20.499981 Z"
       id="path3202"
       inkscape:connector-curvature="0" />
  </g>
  <g
     style="display:inline;filter:url(#filter4543);opacity:0.308"
     inkscape:label="2 copy"
     id="g4377"
     inkscape:groupmode="layer">
    <text
       id="text4339"
       y="110.5085"
       x="178.11647"
       style="font-style:normal;font-variant:normal;font-weight:500;font-stretch:normal;font-size:3.47432494px;line-height:1.25;font-family:Roboto;-inkscape-font-specification:'Roboto Medium';letter-spacing:0px;word-spacing:0px;fill:#000000;fill-opacity:1;stroke:none;stroke-width:0.26458332"
       xml:space="preserve"><tspan
         style="font-style:normal;font-variant:normal;font-weight:bold;font-stretch:normal;font-size:19.24241447px;font-family:Roboto;-inkscape-font-specification:'Roboto Bold';fill:#f5f5f5;stroke-width:0.26458332"
         y="110.5085"
         x="178.11647"
         id="tspan4337"
         sodipodi:role="line">Design with us</tspan></text>
    <text
       xml:space="preserve"
       style="font-style:normal;font-variant:normal;font-weight:500;font-stretch:normal;font-size:3.47432494px;line-height:1.25;font-family:Roboto;-inkscape-font-specification:'Roboto Medium';letter-spacing:0px;word-spacing:0px;fill:#000000;fill-opacity:1;stroke:none;stroke-width:0.26458332"
       x="178.11647"
       y="134.26787"
       id="text4343"><tspan
         sodipodi:role="line"
         id="tspan4341"
         x="178.11647"
         y="134.26787"
         style="font-style:normal;font-variant:normal;font-weight:bold;font-stretch:normal;font-size:19.24241447px;font-family:Roboto;-inkscape-font-specification:'Roboto Bold';fill:#f5f5f5;stroke-width:0.26458332">Design with us</tspan></text>
    <text
       id="text4347"
       y="158.02724"
       x="178.11647"
       style="font-style:normal;font-variant:normal;font-weight:500;font-stretch:normal;font-size:3.47432494px;line-height:1.25;font-family:Roboto;-inkscape-font-specification:'Roboto Medium';letter-spacing:0px;word-spacing:0px;fill:#000000;fill-opacity:1;stroke:none;stroke-width:0.26458332"
       xml:space="preserve"><tspan
         style="font-style:normal;font-variant:normal;font-weight:bold;font-stretch:normal;font-size:19.24241447px;font-family:Roboto;-inkscape-font-specification:'Roboto Bold';fill:#f5f5f5;stroke-width:0.26458332"
         y="158.02724"
         x="178.11647"
         id="tspan4345"
         sodipodi:role="line">Design with us</tspan></text>
    <text
       xml:space="preserve"
       style="font-style:normal;font-variant:normal;font-weight:500;font-stretch:normal;font-size:3.47432494px;line-height:1.25;font-family:Roboto;-inkscape-font-specification:'Roboto Medium';letter-spacing:0px;word-spacing:0px;fill:#000000;fill-opacity:1;stroke:none;stroke-width:0.26458332"
       x="178.11647"
       y="181.78661"
       id="text4351"><tspan
         sodipodi:role="line"
         id="tspan4349"
         x="178.11647"
         y="181.78661"
         style="font-style:normal;font-variant:normal;font-weight:bold;font-stretch:normal;font-size:19.24241447px;font-family:Roboto;-inkscape-font-specification:'Roboto Bold';fill:#f5f5f5;stroke-width:0.26458332">Design with us</tspan></text>
    <text
       id="text4355"
       y="205.54597"
       x="178.11647"
       style="font-style:normal;font-variant:normal;font-weight:500;font-stretch:normal;font-size:3.47432494px;line-height:1.25;font-family:Roboto;-inkscape-font-specification:'Roboto Medium';letter-spacing:0px;word-spacing:0px;fill:#000000;fill-opacity:1;stroke:none;stroke-width:0.26458332"
       xml:space="preserve"><tspan
         style="font-style:normal;font-variant:normal;font-weight:bold;font-stretch:normal;font-size:19.24241447px;font-family:Roboto;-inkscape-font-specification:'Roboto Bold';fill:#f5f5f5;stroke-width:0.26458332"
         y="205.54597"
         x="178.11647"
         id="tspan4353"
         sodipodi:role="line">Design with us</tspan></text>
  </g>
  <g
     inkscape:groupmode="layer"
     id="layer6"
     inkscape:label="2"
     style="display:inline"
     sodipodi:insensitive="true">
    <g
       id="g3289"
       transform="matrix(0.75757542,0,0,0.75757542,150.19118,23.80437)"
       style="stroke-width:1.32000065">
      <text
         id="text3251"
         y="107.18441"
         x="36.861404"
         style="font-style:normal;font-variant:normal;font-weight:500;font-stretch:normal;font-size:4.58611107px;line-height:1.25;font-family:Roboto;-inkscape-font-specification:'Roboto Medium';letter-spacing:0px;word-spacing:0px;fill:#000000;fill-opacity:1;stroke:none;stroke-width:0.34925014"
         xml:space="preserve"><tspan
           style="font-style:normal;font-variant:normal;font-weight:bold;font-stretch:normal;font-size:25.39999962px;font-family:Roboto;-inkscape-font-specification:'Roboto Bold';fill:#f5f5f5;stroke-width:0.34925014"
           y="107.18441"
           x="36.861404"
           id="tspan3249"
           sodipodi:role="line">Design with us</tspan></text>
      <text
         xml:space="preserve"
         style="font-style:normal;font-variant:normal;font-weight:500;font-stretch:normal;font-size:4.58611107px;line-height:1.25;font-family:Roboto;-inkscape-font-specification:'Roboto Medium';letter-spacing:0px;word-spacing:0px;fill:#000000;fill-opacity:1;stroke:none;stroke-width:0.34925014"
         x="36.861404"
         y="138.5468"
         id="text3255"><tspan
           sodipodi:role="line"
           id="tspan3253"
           x="36.861404"
           y="138.5468"
           style="font-style:normal;font-variant:normal;font-weight:bold;font-stretch:normal;font-size:25.39999962px;font-family:Roboto;-inkscape-font-specification:'Roboto Bold';fill:#f5f5f5;stroke-width:0.34925014">Design with us</tspan></text>
      <text
         id="text3259"
         y="169.90916"
         x="36.861404"
         style="font-style:normal;font-variant:normal;font-weight:500;font-stretch:normal;font-size:4.58611107px;line-height:1.25;font-family:Roboto;-inkscape-font-specification:'Roboto Medium';letter-spacing:0px;word-spacing:0px;fill:#000000;fill-opacity:1;stroke:none;stroke-width:0.34925014"
         xml:space="preserve"><tspan
           style="font-style:normal;font-variant:normal;font-weight:bold;font-stretch:normal;font-size:25.39999962px;font-family:Roboto;-inkscape-font-specification:'Roboto Bold';fill:#f5f5f5;stroke-width:0.34925014"
           y="169.90916"
           x="36.861404"
           id="tspan3257"
           sodipodi:role="line">Design with us</tspan></text>
      <text
         xml:space="preserve"
         style="font-style:normal;font-variant:normal;font-weight:500;font-stretch:normal;font-size:4.58611107px;line-height:1.25;font-family:Roboto;-inkscape-font-specification:'Roboto Medium';letter-spacing:0px;word-spacing:0px;fill:#000000;fill-opacity:1;stroke:none;stroke-width:0.34925014"
         x="36.861404"
         y="201.27156"
         id="text3263"><tspan
           sodipodi:role="line"
           id="tspan3261"
           x="36.861404"
           y="201.27156"
           style="font-style:normal;font-variant:normal;font-weight:bold;font-stretch:normal;font-size:25.39999962px;font-family:Roboto;-inkscape-font-specification:'Roboto Bold';fill:#f5f5f5;stroke-width:0.34925014">Design with us</tspan></text>
      <text
         id="text3267"
         y="232.63394"
         x="36.861404"
         style="font-style:normal;font-variant:normal;font-weight:500;font-stretch:normal;font-size:4.58611107px;line-height:1.25;font-family:Roboto;-inkscape-font-specification:'Roboto Medium';letter-spacing:0px;word-spacing:0px;fill:#000000;fill-opacity:1;stroke:none;stroke-width:0.34925014"
         xml:space="preserve"><tspan
           style="font-style:normal;font-variant:normal;font-weight:bold;font-stretch:normal;font-size:25.39999962px;font-family:Roboto;-inkscape-font-specification:'Roboto Bold';fill:#f5f5f5;stroke-width:0.34925014"
           y="232.63394"
           x="36.861404"
           id="tspan3265"
           sodipodi:role="line">Design with us</tspan></text>
      <text
         xml:space="preserve"
         style="font-style:normal;font-variant:normal;font-weight:500;font-stretch:normal;font-size:4.58611107px;line-height:1.25;font-family:Roboto;-inkscape-font-specification:'Roboto Medium';letter-spacing:0px;word-spacing:0px;fill:#000000;fill-opacity:1;stroke:none;stroke-width:0.34925014"
         x="36.861404"
         y="263.99631"
         id="text3271"><tspan
           sodipodi:role="line"
           id="tspan3269"
           x="36.861404"
           y="263.99631"
           style="font-style:normal;font-variant:normal;font-weight:bold;font-stretch:normal;font-size:25.39999962px;font-family:Roboto;-inkscape-font-specification:'Roboto Bold';fill:#f5f5f5;stroke-width:0.34925014">Design — Crispy</tspan></text>
    </g>
    <text
       xml:space="preserve"
       style="font-style:normal;font-variant:normal;font-weight:500;font-stretch:normal;font-size:13.5247364px;line-height:1.25;font-family:Roboto;-inkscape-font-specification:'Roboto Medium';letter-spacing:0px;word-spacing:0px;fill:#000000;fill-opacity:1;stroke:none;stroke-width:0.26458332"
       x="174.58313"
       y="81.48555"
       id="text3275"><tspan
         sodipodi:role="line"
         id="tspan3273"
         x="174.58313"
         y="81.48555"
         style="font-style:normal;font-variant:normal;font-weight:bold;font-stretch:normal;font-size:74.90623474px;font-family:Roboto;-inkscape-font-specification:'Roboto Bold';fill:#f5f5f5;stroke-width:0.26458332">Desi</tspan></text>
    <text
       id="text3293"
       y="332.1553"
       x="255.93994"
       style="font-style:normal;font-variant:normal;font-weight:500;font-stretch:normal;font-size:13.5247364px;line-height:1.25;font-family:Roboto;-inkscape-font-specification:'Roboto Medium';text-align:end;letter-spacing:0px;word-spacing:0px;text-anchor:end;fill:#000000;fill-opacity:1;stroke:none;stroke-width:0.26458332"
       xml:space="preserve"><tspan
         style="font-style:normal;font-variant:normal;font-weight:bold;font-stretch:normal;font-size:74.90623474px;font-family:Roboto;-inkscape-font-specification:'Roboto Bold';text-align:end;text-anchor:end;fill:#f5f5f5;stroke-width:0.26458332"
         y="332.1553"
         x="255.93994"
         id="tspan3291"
         sodipodi:role="line">with us</tspan></text>
    <text
       xml:space="preserve"
       style="font-style:normal;font-variant:normal;font-weight:500;font-stretch:normal;font-size:13.5247364px;line-height:1.25;font-family:Roboto;-inkscape-font-specification:'Roboto Medium';letter-spacing:0px;word-spacing:0px;fill:#000000;fill-opacity:1;stroke:none;stroke-width:0.26458332"
       x="-17.779734"
       y="223.80634"
       id="text3297"><tspan
         sodipodi:role="line"
         id="tspan3295"
         x="-17.779734"
         y="223.80634"
         style="font-style:normal;font-variant:normal;font-weight:bold;font-stretch:normal;font-size:74.90623474px;font-family:Roboto;-inkscape-font-specification:'Roboto Bold';fill:#f5f5f5;stroke-width:0.26458332">gn</tspan></text>
    <rect
       style="display:inline;fill:#f5f5f5;fill-opacity:1;stroke:none;stroke-width:1;stroke-linecap:round;stroke-miterlimit:4;stroke-dasharray:none;stroke-opacity:1"
       id="rect3322"
       width="62.831146"
       height="10.583333"
       x="1.3535839e-13"
       y="0" />
  </g>
  <g
     inkscape:groupmode="layer"
     id="layer7"
     inkscape:label="3"
     style="display:inline"
     sodipodi:insensitive="true">
    <path
       style="color:#000000;font-style:normal;font-variant:normal;font-weight:normal;font-stretch:normal;font-size:medium;line-height:normal;font-family:sans-serif;font-variant-ligatures:normal;font-variant-position:normal;font-variant-caps:normal;font-variant-numeric:normal;font-variant-alternates:normal;font-feature-settings:normal;text-indent:0;text-align:start;text-decoration:none;text-decoration-line:none;text-decoration-style:solid;text-decoration-color:#000000;letter-spacing:normal;word-spacing:normal;text-transform:none;writing-mode:lr-tb;direction:ltr;text-orientation:mixed;dominant-baseline:auto;baseline-shift:baseline;text-anchor:start;white-space:normal;shape-padding:0;clip-rule:nonzero;display:inline;overflow:visible;visibility:visible;opacity:1;isolation:auto;mix-blend-mode:normal;color-interpolation:sRGB;color-interpolation-filters:linearRGB;solid-color:#000000;solid-opacity:1;vector-effect:none;fill:#f5f5f5;fill-opacity:1;fill-rule:nonzero;stroke:none;stroke-width:18.89763832;stroke-linecap:round;stroke-linejoin:miter;stroke-miterlimit:4;stroke-dasharray:none;stroke-dashoffset:0;stroke-opacity:1;color-rendering:auto;image-rendering:auto;shape-rendering:auto;text-rendering:auto;enable-background:accumulate"
       d="m 434.05859,84.085938 v 5.005859 L 273.71094,89.21875 c -11.2342,-2.777008 -22.9731,-4.259765 -35.05469,-4.259766 -12.16268,0 -23.97853,1.501201 -35.28125,4.314454 L 40.884766,89.402344 v -4.992188 h -20 v 20.000004 h 20 V 99.404297 L 175.56055,99.298828 C 132.26757,120.11703 100.77092,161.66637 93.988281,211.00391 H 82.060547 v 40 h 40.000003 v -40 h -8.98828 c 9.50587,-60.4167 61.40541,-106.55836 124.39648,-107.13282 l -83.32031,224.3711 h 54.57422 v 21.00195 h 57.49804 v -21.00195 h 54.57422 l -5.00586,-13.47852 -78.30859,-210.89258 c 0.39224,-0.004 0.78269,-0.0156 1.17578,-0.0156 63.52631,0 116.01833,46.35179 125.58398,107.14844 h -10.44335 v 40 h 40 v -40 h -10.47071 c -6.79358,-49.41739 -38.38396,-91.02 -81.78515,-111.804691 l 132.51757,-0.103516 v 4.990237 h 20 V 84.085938 Z M 237.47461,161.30078 292.03516,308.24609 H 182.9082 Z"
       transform="scale(0.26458333)"
       id="path3326"
       inkscape:connector-curvature="0"
       sodipodi:nodetypes="cccscccccccccccccccccccccccscccccccccccccccc" />
  </g>
  <g
     inkscape:label="hard light 2"
     id="layer2"
     inkscape:groupmode="layer"
     style="display:inline;filter:url(#filter4189)">
    <path
       sodipodi:type="star"
       style="fill:url(#linearGradient4169);fill-opacity:1;stroke:none;stroke-width:2.64583325;stroke-linecap:round;stroke-miterlimit:4;stroke-dasharray:none;stroke-opacity:1"
       id="path4147"
       sodipodi:sides="3"
       sodipodi:cx="119.95363"
       sodipodi:cy="196.40758"
       sodipodi:r1="24.174969"
       sodipodi:r2="12.081802"
       sodipodi:arg1="0.52359878"
       sodipodi:arg2="1.5707963"
       inkscape:flatsided="false"
       inkscape:rounded="0"
       inkscape:randomized="0"
       d="m 140.88977,208.49506 -20.93614,-0.006 -20.936139,0.006 10.472989,-18.12838 10.46315,-18.13407 10.46315,18.13407 z"
       inkscape:transform-center-x="-2.1191217e-06"
       inkscape:transform-center-y="-6.0437452" />
  </g>
  <g
     inkscape:groupmode="layer"
     id="layer8"
     inkscape:label="hard light"
     style="display:inline;opacity:1;filter:url(#filter4143)"
     sodipodi:insensitive="true">
    <circle
       style="display:inline;fill:url(#linearGradient3021);fill-opacity:1;stroke:none;stroke-width:0.41398785;stroke-miterlimit:4;stroke-dasharray:none;stroke-opacity:1"
       id="path2981"
       cx="139.39572"
       cy="206.23413"
       r="41.633785"
       transform="rotate(-45)" />
  </g>
  <g
     inkscape:groupmode="layer"
     id="layer9"
     inkscape:label="overlay"
     style="display:inline;filter:url(#filter3557)"
     sodipodi:insensitive="true">
    <path
       style="fill:#f5f5f5;fill-opacity:1;stroke:none;stroke-width:2.64583325;stroke-linecap:round;stroke-miterlimit:4;stroke-dasharray:none;stroke-opacity:1"
       d="m 89.669364,163.48892 h 60.321386 v 60.32139 H 89.669364 Z"
       id="rect3540"
       inkscape:connector-curvature="0" />
    <g
       id="g3831"
       transform="matrix(1.8970574,0,0,1.8970574,9.871701,-82.576287)"
       style="stroke-width:0.52713215">
      <circle
         transform="rotate(90)"
         r="1.170307"
         cy="-58.027725"
         cx="160.08646"
         id="circle3643"
         style="fill:#f5f5f5;fill-opacity:1;stroke:none;stroke-width:1.39470375;stroke-linecap:round;stroke-miterlimit:4;stroke-dasharray:none;stroke-opacity:1" />
      <circle
         transform="rotate(90)"
         style="fill:#f5f5f5;fill-opacity:1;stroke:none;stroke-width:1.39470375;stroke-linecap:round;stroke-miterlimit:4;stroke-dasharray:none;stroke-opacity:1"
         id="circle3645"
         cx="145.89107"
         cy="-58.027725"
         r="1.170307" />
      <circle
         transform="rotate(90)"
         r="1.170307"
         cy="-58.027725"
         cx="131.69566"
         id="circle3647"
         style="fill:#f5f5f5;fill-opacity:1;stroke:none;stroke-width:1.39470375;stroke-linecap:round;stroke-miterlimit:4;stroke-dasharray:none;stroke-opacity:1" />
      <circle
         transform="rotate(90)"
         style="fill:#f5f5f5;fill-opacity:1;stroke:none;stroke-width:1.39470398;stroke-linecap:round;stroke-miterlimit:4;stroke-dasharray:none;stroke-opacity:1"
         id="circle3649"
         cx="117.50028"
         cy="-58.027725"
         r="1.170307" />
      <circle
         transform="rotate(90)"
         r="1.170307"
         cy="-58.027725"
         cx="103.30489"
         id="circle3651"
         style="fill:#f5f5f5;fill-opacity:1;stroke:none;stroke-width:1.39470398;stroke-linecap:round;stroke-miterlimit:4;stroke-dasharray:none;stroke-opacity:1" />
      <circle
         transform="rotate(90)"
         style="fill:#f5f5f5;fill-opacity:1;stroke:none;stroke-width:1.39470375;stroke-linecap:round;stroke-miterlimit:4;stroke-dasharray:none;stroke-opacity:1"
         id="circle3653"
         cx="174.28183"
         cy="-58.027725"
         r="1.170307" />
      <circle
         transform="matrix(0,1,1,0,0,0)"
         style="fill:#f5f5f5;fill-opacity:1;stroke:none;stroke-width:1.39470375;stroke-linecap:round;stroke-miterlimit:4;stroke-dasharray:none;stroke-opacity:1"
         id="circle3601"
         cx="160.08646"
         cy="15.441566"
         r="1.170307" />
      <circle
         transform="matrix(0,1,1,0,0,0)"
         r="1.170307"
         cy="15.441566"
         cx="145.89107"
         id="circle3603"
         style="fill:#f5f5f5;fill-opacity:1;stroke:none;stroke-width:1.39470375;stroke-linecap:round;stroke-miterlimit:4;stroke-dasharray:none;stroke-opacity:1" />
      <circle
         transform="matrix(0,1,1,0,0,0)"
         style="fill:#f5f5f5;fill-opacity:1;stroke:none;stroke-width:1.39470375;stroke-linecap:round;stroke-miterlimit:4;stroke-dasharray:none;stroke-opacity:1"
         id="circle3605"
         cx="131.69566"
         cy="15.441566"
         r="1.170307" />
      <circle
         transform="matrix(0,1,1,0,0,0)"
         r="1.170307"
         cy="15.441566"
         cx="117.50028"
         id="circle3607"
         style="fill:#f5f5f5;fill-opacity:1;stroke:none;stroke-width:1.39470398;stroke-linecap:round;stroke-miterlimit:4;stroke-dasharray:none;stroke-opacity:1" />
      <circle
         transform="matrix(0,1,1,0,0,0)"
         style="fill:#f5f5f5;fill-opacity:1;stroke:none;stroke-width:1.39470398;stroke-linecap:round;stroke-miterlimit:4;stroke-dasharray:none;stroke-opacity:1"
         id="circle3609"
         cx="103.30489"
         cy="15.441566"
         r="1.170307" />
      <circle
         transform="matrix(0,1,1,0,0,0)"
         r="1.170307"
         cy="15.441566"
         cx="174.28183"
         id="circle3611"
         style="fill:#f5f5f5;fill-opacity:1;stroke:none;stroke-width:1.39470375;stroke-linecap:round;stroke-miterlimit:4;stroke-dasharray:none;stroke-opacity:1" />
      <circle
         transform="matrix(0,1,1,0,0,0)"
         r="1.170307"
         cy="29.636944"
         cx="160.08646"
         id="circle3615"
         style="fill:#f5f5f5;fill-opacity:1;stroke:none;stroke-width:1.39470375;stroke-linecap:round;stroke-miterlimit:4;stroke-dasharray:none;stroke-opacity:1" />
      <circle
         transform="matrix(0,1,1,0,0,0)"
         style="fill:#f5f5f5;fill-opacity:1;stroke:none;stroke-width:1.39470375;stroke-linecap:round;stroke-miterlimit:4;stroke-dasharray:none;stroke-opacity:1"
         id="circle3617"
         cx="145.89107"
         cy="29.636944"
         r="1.170307" />
      <circle
         transform="matrix(0,1,1,0,0,0)"
         r="1.170307"
         cy="29.636944"
         cx="131.69566"
         id="circle3619"
         style="fill:#f5f5f5;fill-opacity:1;stroke:none;stroke-width:1.39470375;stroke-linecap:round;stroke-miterlimit:4;stroke-dasharray:none;stroke-opacity:1" />
      <circle
         transform="matrix(0,1,1,0,0,0)"
         style="fill:#f5f5f5;fill-opacity:1;stroke:none;stroke-width:1.39470398;stroke-linecap:round;stroke-miterlimit:4;stroke-dasharray:none;stroke-opacity:1"
         id="circle3621"
         cx="117.50028"
         cy="29.636944"
         r="1.170307" />
      <circle
         transform="matrix(0,1,1,0,0,0)"
         r="1.170307"
         cy="29.636944"
         cx="103.30489"
         id="circle3623"
         style="fill:#f5f5f5;fill-opacity:1;stroke:none;stroke-width:1.39470398;stroke-linecap:round;stroke-miterlimit:4;stroke-dasharray:none;stroke-opacity:1" />
      <circle
         transform="matrix(0,1,1,0,0,0)"
         style="fill:#f5f5f5;fill-opacity:1;stroke:none;stroke-width:1.39470375;stroke-linecap:round;stroke-miterlimit:4;stroke-dasharray:none;stroke-opacity:1"
         id="circle3625"
         cx="174.28183"
         cy="29.636944"
         r="1.170307" />
      <circle
         transform="matrix(0,1,1,0,0,0)"
         style="fill:#f5f5f5;fill-opacity:1;stroke:none;stroke-width:1.39470375;stroke-linecap:round;stroke-miterlimit:4;stroke-dasharray:none;stroke-opacity:1"
         id="circle3629"
         cx="160.08646"
         cy="43.832333"
         r="1.170307" />
      <circle
         transform="matrix(0,1,1,0,0,0)"
         r="1.170307"
         cy="43.832333"
         cx="145.89107"
         id="circle3631"
         style="fill:#f5f5f5;fill-opacity:1;stroke:none;stroke-width:1.39470375;stroke-linecap:round;stroke-miterlimit:4;stroke-dasharray:none;stroke-opacity:1" />
      <circle
         transform="matrix(0,1,1,0,0,0)"
         style="fill:#f5f5f5;fill-opacity:1;stroke:none;stroke-width:1.39470375;stroke-linecap:round;stroke-miterlimit:4;stroke-dasharray:none;stroke-opacity:1"
         id="circle3633"
         cx="131.69566"
         cy="43.832333"
         r="1.170307" />
      <circle
         transform="matrix(0,1,1,0,0,0)"
         r="1.170307"
         cy="43.832333"
         cx="117.50028"
         id="circle3635"
         style="fill:#f5f5f5;fill-opacity:1;stroke:none;stroke-width:1.39470398;stroke-linecap:round;stroke-miterlimit:4;stroke-dasharray:none;stroke-opacity:1" />
      <circle
         transform="matrix(0,1,1,0,0,0)"
         style="fill:#f5f5f5;fill-opacity:1;stroke:none;stroke-width:1.39470398;stroke-linecap:round;stroke-miterlimit:4;stroke-dasharray:none;stroke-opacity:1"
         id="circle3637"
         cx="103.30489"
         cy="43.832333"
         r="1.170307" />
      <circle
         transform="matrix(0,1,1,0,0,0)"
         r="1.170307"
         cy="43.832333"
         cx="174.28183"
         id="circle3639"
         style="fill:#f5f5f5;fill-opacity:1;stroke:none;stroke-width:1.39470375;stroke-linecap:round;stroke-miterlimit:4;stroke-dasharray:none;stroke-opacity:1" />
      <circle
         transform="matrix(0,1,1,0,0,0)"
         style="fill:#f5f5f5;fill-opacity:1;stroke:none;stroke-width:1.39470375;stroke-linecap:round;stroke-miterlimit:4;stroke-dasharray:none;stroke-opacity:1"
         id="circle3657"
         cx="160.08646"
         cy="72.223122"
         r="1.170307" />
      <circle
         transform="matrix(0,1,1,0,0,0)"
         r="1.170307"
         cy="72.223122"
         cx="145.89107"
         id="circle3659"
         style="fill:#f5f5f5;fill-opacity:1;stroke:none;stroke-width:1.39470375;stroke-linecap:round;stroke-miterlimit:4;stroke-dasharray:none;stroke-opacity:1" />
      <circle
         transform="matrix(0,1,1,0,0,0)"
         style="fill:#f5f5f5;fill-opacity:1;stroke:none;stroke-width:1.39470375;stroke-linecap:round;stroke-miterlimit:4;stroke-dasharray:none;stroke-opacity:1"
         id="circle3661"
         cx="131.69566"
         cy="72.223122"
         r="1.170307" />
      <circle
         transform="matrix(0,1,1,0,0,0)"
         r="1.170307"
         cy="72.223122"
         cx="117.50028"
         id="circle3663"
         style="fill:#f5f5f5;fill-opacity:1;stroke:none;stroke-width:1.39470398;stroke-linecap:round;stroke-miterlimit:4;stroke-dasharray:none;stroke-opacity:1" />
      <circle
         transform="matrix(0,1,1,0,0,0)"
         style="fill:#f5f5f5;fill-opacity:1;stroke:none;stroke-width:1.39470398;stroke-linecap:round;stroke-miterlimit:4;stroke-dasharray:none;stroke-opacity:1"
         id="circle3665"
         cx="103.30489"
         cy="72.223122"
         r="1.170307" />
      <circle
         transform="matrix(0,1,1,0,0,0)"
         r="1.170307"
         cy="72.223122"
         cx="174.28183"
         id="circle3667"
         style="fill:#f5f5f5;fill-opacity:1;stroke:none;stroke-width:1.39470375;stroke-linecap:round;stroke-miterlimit:4;stroke-dasharray:none;stroke-opacity:1" />
      <circle
         transform="matrix(0,1,1,0,0,0)"
         r="1.170307"
         cy="86.41851"
         cx="160.08646"
         id="circle3671"
         style="fill:#f5f5f5;fill-opacity:1;stroke:none;stroke-width:1.39470375;stroke-linecap:round;stroke-miterlimit:4;stroke-dasharray:none;stroke-opacity:1" />
      <circle
         transform="matrix(0,1,1,0,0,0)"
         style="fill:#f5f5f5;fill-opacity:1;stroke:none;stroke-width:1.39470375;stroke-linecap:round;stroke-miterlimit:4;stroke-dasharray:none;stroke-opacity:1"
         id="circle3673"
         cx="145.89107"
         cy="86.41851"
         r="1.170307" />
      <circle
         transform="matrix(0,1,1,0,0,0)"
         r="1.170307"
         cy="86.41851"
         cx="131.69566"
         id="circle3675"
         style="fill:#f5f5f5;fill-opacity:1;stroke:none;stroke-width:1.39470375;stroke-linecap:round;stroke-miterlimit:4;stroke-dasharray:none;stroke-opacity:1" />
      <circle
         transform="matrix(0,1,1,0,0,0)"
         style="fill:#f5f5f5;fill-opacity:1;stroke:none;stroke-width:1.39470398;stroke-linecap:round;stroke-miterlimit:4;stroke-dasharray:none;stroke-opacity:1"
         id="circle3677"
         cx="117.50028"
         cy="86.41851"
         r="1.170307" />
      <circle
         transform="matrix(0,1,1,0,0,0)"
         r="1.170307"
         cy="86.41851"
         cx="103.30489"
         id="circle3679"
         style="fill:#f5f5f5;fill-opacity:1;stroke:none;stroke-width:1.39470398;stroke-linecap:round;stroke-miterlimit:4;stroke-dasharray:none;stroke-opacity:1" />
      <circle
         transform="matrix(0,1,1,0,0,0)"
         style="fill:#f5f5f5;fill-opacity:1;stroke:none;stroke-width:1.39470375;stroke-linecap:round;stroke-miterlimit:4;stroke-dasharray:none;stroke-opacity:1"
         id="circle3681"
         cx="174.28183"
         cy="86.41851"
         r="1.170307" />
    </g>
    <g
       id="g3950"
       transform="matrix(2.062646,0,0,2.062646,-323.3674,-287.80346)"
       style="display:inline;fill:#ffffff;fill-opacity:1;stroke-width:0.48481417">
      <rect
         ry="2.6458333"
         rx="5.4687405"
         y="258.51404"
         x="274.43182"
         height="2.6458333"
         width="2.6458333"
         id="rect3929"
         style="fill:#ffffff;fill-opacity:1;stroke:none;stroke-width:1.28273749;stroke-linecap:round;stroke-miterlimit:4;stroke-dasharray:none;stroke-opacity:1" />
      <rect
         style="fill:#ffffff;fill-opacity:1;stroke:none;stroke-width:1.28273749;stroke-linecap:round;stroke-miterlimit:4;stroke-dasharray:none;stroke-opacity:1"
         id="rect3931"
         width="4.2812228"
         height="4.2812228"
         x="277.07767"
         y="258.51404"
         rx="8.8489685"
         ry="4.2812228" />
      <rect
         ry="6.9270186"
         rx="14.317631"
         y="262.79526"
         x="274.43188"
         height="6.9270186"
         width="6.9270186"
         id="rect3933"
         style="fill:#ffffff;fill-opacity:1;stroke:none;stroke-width:1.28273737;stroke-linecap:round;stroke-miterlimit:4;stroke-dasharray:none;stroke-opacity:1" />
      <rect
         style="fill:#ffffff;fill-opacity:1;stroke:none;stroke-width:1.28273737;stroke-linecap:round;stroke-miterlimit:4;stroke-dasharray:none;stroke-opacity:1"
         id="rect3935"
         width="11.20867"
         height="11.20867"
         x="263.22321"
         y="258.51361"
         rx="23.167484"
         ry="11.20867" />
      <rect
         ry="18.135424"
         rx="37.48457"
         y="240.37817"
         x="263.22321"
         height="18.135424"
         width="18.135424"
         id="rect3937"
         style="fill:#ffffff;fill-opacity:1;stroke:none;stroke-width:1.28273737;stroke-linecap:round;stroke-miterlimit:4;stroke-dasharray:none;stroke-opacity:1" />
      <rect
         style="fill:#ffffff;fill-opacity:1;stroke:none;stroke-width:1.28273737;stroke-linecap:round;stroke-miterlimit:4;stroke-dasharray:none;stroke-opacity:1"
         id="rect3939"
         width="29.342972"
         height="29.342972"
         x="281.35864"
         y="240.37817"
         rx="60.649738"
         ry="29.342972" />
      <rect
         ry="47.477112"
         rx="98.13166"
         y="269.72113"
         x="263.22449"
         height="47.477112"
         width="47.477112"
         id="rect3941"
         style="fill:#ffffff;fill-opacity:1;stroke:none;stroke-width:1.28273737;stroke-linecap:round;stroke-miterlimit:4;stroke-dasharray:none;stroke-opacity:1" />
    </g>
  </g>
  <g
     inkscape:groupmode="layer"
     id="layer10"
     inkscape:label="screen"
     style="display:inline;filter:url(#filter4815)">
    <g
       id="g4569"
       transform="matrix(1.5854171,-1.5854171,1.5854171,1.5854171,-224.01939,175.86401)"
       style="fill:url(#linearGradient4581);fill-opacity:1;stroke-width:0.44600677">
      <path
         inkscape:connector-curvature="0"
         id="rect4560"
         d="m 125.33844,42.622295 h 37.74602 v 9.391354 h -37.74602 z"
         style="fill:url(#linearGradient4591);fill-opacity:1;stroke:none;stroke-width:1.18005955;stroke-linecap:round;stroke-miterlimit:4;stroke-dasharray:none;stroke-opacity:1" />
      <path
         style="fill:url(#linearGradient4593);fill-opacity:1;stroke:none;stroke-width:1.18005955;stroke-linecap:round;stroke-miterlimit:4;stroke-dasharray:none;stroke-opacity:1"
         d="m 148.90713,28.444962 v 37.74602 h -9.39136 v -37.74602 z"
         id="path4565"
         inkscape:connector-curvature="0" />
    </g>
    <g
       style="fill:url(#linearGradient4829);fill-opacity:1;stroke-width:0.27565333"
       transform="matrix(2.5652031,-2.5652031,2.5652031,2.5652031,-411.67724,540.2834)"
       id="g4823">
      <path
         style="fill:url(#linearGradient4825);fill-opacity:1;stroke:none;stroke-width:0.72933275;stroke-linecap:round;stroke-miterlimit:4;stroke-dasharray:none;stroke-opacity:1"
         d="m 125.33844,42.622295 h 37.74602 v 9.391354 h -37.74602 z"
         id="path4819"
         inkscape:connector-curvature="0" />
      <path
         inkscape:connector-curvature="0"
         id="path4821"
         d="m 148.90713,28.444962 v 37.74602 h -9.39136 v -37.74602 z"
         style="fill:url(#linearGradient4827);fill-opacity:1;stroke:none;stroke-width:0.72933275;stroke-linecap:round;stroke-miterlimit:4;stroke-dasharray:none;stroke-opacity:1" />
    </g>
  </g>
</svg>
